…
But the output is actually a list, that also stores the individual bootstrap values for later computation.


```r
beetle_richness_boot[2]
#> $bootstrap_values
#> # A tibble: 2,997 × 3
#> # Groups:   year, region_name [3]
#>     year region_name boot_values
#>    <int> <chr>             <dbl>
#>  1  2020 Østlandet          61.2
#>  2  2020 Østlandet          67.9
#>  3  2020 Østlandet          56.8
#>  4  2020 Østlandet          62.0
#>  5  2020 Østlandet          53.5
#>  6  2020 Østlandet          49.0
#>  7  2020 Østlandet          55.8
#>  8  2020 Østlandet          66.7
#>  9  2020 Østlandet          60.4
#> 10  2020 Østlandet          53.2
#> # … with 2,987 more rows
```
…
